<svg width="20" height="20" viewBox="0 0 20 20" fill="none" xmlns="http://www.w3.org/2000/svg">
<path d="M16.1667 16.6667H8C7.72386 16.6667 7.5 16.4428 7.5 16.1667V8C7.5 7.72386 7.72386 7.5 8 7.5H16.1667C16.4428 7.5 16.6667 7.72386 16.6667 8V16.1667C16.6667 16.4428 16.4428 16.6667 16.1667 16.6667Z" stroke="black" stroke-width="1.25" stroke-linecap="round" stroke-linejoin="round"/>
<path d="M12.4997 7.50065V3.83398C12.4997 3.55784 12.2758 3.33398 11.9997 3.33398H3.83301C3.55687 3.33398 3.33301 3.55784 3.33301 3.83398V12.0006C3.33301 12.2768 3.55687 12.5007 3.83301 12.5007H7.49967" stroke="black" stroke-width="1.25" stroke-linecap="round" stroke-linejoin="round"/>
</svg>
