<svg width="24" height="24" viewBox="0 0 24 24" fill="none" xmlns="http://www.w3.org/2000/svg">
<path d="M15.5 17.5L19 21" stroke="#808080" stroke-width="1.25" stroke-linecap="round" stroke-linejoin="round"/>
<path d="M5 13C5 16.3137 7.68629 19 11 19C12.6597 19 14.1621 18.3261 15.2483 17.237C16.3308 16.1517 17 14.654 17 13C17 9.68629 14.3137 7 11 7C7.68629 7 5 9.68629 5 13Z" stroke="#808080" stroke-width="1.25" stroke-linecap="round" stroke-linejoin="round"/>
</svg>
